{
    "m_SGVersion": 3,
    "m_Type": "UnityEditor.ShaderGraph.GraphData",
    "m_ObjectId": "a9f970b9bf7044938b25a0497259838f",
    "m_Properties": [],
    "m_Keywords": [],
    "m_Dropdowns": [],
    "m_CategoryData": [
        {
            "m_Id": "479df6f32b304a3089248785ff29cf1d"
        }
    ],
    "m_Nodes": [
        {
            "m_Id": "5819d6afe629477daff8add987ee0e03"
        },
        {
            "m_Id": "0740f8974aff4ee9bcbfde6d888f3201"
        },
        {
            "m_Id": "eb2133f9e52a4462babbdf18c89d4179"
        },
        {
            "m_Id": "ac6b01159f8f44e085fb097a633500b3"
        },
        {
            "m_Id": "3c6ddcbe008a4ba1841cb0bf63ee0e38"
        },
        {
            "m_Id": "711cf18167574b5c9f4b8f9b8b5d2f7a"
        },
        {
            "m_Id": "5a6a4649eb6d46578be69fb975df9e0e"
        },
        {
            "m_Id": "75743f5a0f6d41908f666b9d4651cd68"
        }
    ],
    "m_GroupDatas": [],
    "m_StickyNoteDatas": [],
    "m_Edges": [
        {
            "m_OutputSlot": {
                "m_Node": {
                    "m_Id": "0740f8974aff4ee9bcbfde6d888f3201"
                },
                "m_SlotId": 0
            },
            "m_InputSlot": {
                "m_Node": {
                    "m_Id": "ac6b01159f8f44e085fb097a633500b3"
                },
                "m_SlotId": 0
            }
        },
        {
            "m_OutputSlot": {
                "m_Node": {
                    "m_Id": "0740f8974aff4ee9bcbfde6d888f3201"
                },
                "m_SlotId": 0
            },
            "m_InputSlot": {
                "m_Node": {
                    "m_Id": "eb2133f9e52a4462babbdf18c89d4179"
                },
                "m_SlotId": 0
            }
        },
        {
            "m_OutputSlot": {
                "m_Node": {
                    "m_Id": "3c6ddcbe008a4ba1841cb0bf63ee0e38"
                },
                "m_SlotId": 1
            },
            "m_InputSlot": {
                "m_Node": {
                    "m_Id": "711cf18167574b5c9f4b8f9b8b5d2f7a"
                },
                "m_SlotId": 0
            }
        },
        {
            "m_OutputSlot": {
                "m_Node": {
                    "m_Id": "5a6a4649eb6d46578be69fb975df9e0e"
                },
                "m_SlotId": 2
            },
            "m_InputSlot": {
                "m_Node": {
                    "m_Id": "5819d6afe629477daff8add987ee0e03"
                },
                "m_SlotId": 0
            }
        },
        {
            "m_OutputSlot": {
                "m_Node": {
                    "m_Id": "711cf18167574b5c9f4b8f9b8b5d2f7a"
                },
                "m_SlotId": 2
            },
            "m_InputSlot": {
                "m_Node": {
                    "m_Id": "5a6a4649eb6d46578be69fb975df9e0e"
                },
                "m_SlotId": 0
            }
        },
        {
            "m_OutputSlot": {
                "m_Node": {
                    "m_Id": "75743f5a0f6d41908f666b9d4651cd68"
                },
                "m_SlotId": 0
            },
            "m_InputSlot": {
                "m_Node": {
                    "m_Id": "5a6a4649eb6d46578be69fb975df9e0e"
                },
                "m_SlotId": 1
            }
        },
        {
            "m_OutputSlot": {
                "m_Node": {
                    "m_Id": "75743f5a0f6d41908f666b9d4651cd68"
                },
                "m_SlotId": 1
            },
            "m_InputSlot": {
                "m_Node": {
                    "m_Id": "eb2133f9e52a4462babbdf18c89d4179"
                },
                "m_SlotId": 1
            }
        },
        {
            "m_OutputSlot": {
                "m_Node": {
                    "m_Id": "ac6b01159f8f44e085fb097a633500b3"
                },
                "m_SlotId": 2
            },
            "m_InputSlot": {
                "m_Node": {
                    "m_Id": "711cf18167574b5c9f4b8f9b8b5d2f7a"
                },
                "m_SlotId": 1
            }
        },
        {
            "m_OutputSlot": {
                "m_Node": {
                    "m_Id": "eb2133f9e52a4462babbdf18c89d4179"
                },
                "m_SlotId": 2
            },
            "m_InputSlot": {
                "m_Node": {
                    "m_Id": "ac6b01159f8f44e085fb097a633500b3"
                },
                "m_SlotId": 1
            }
        }
    ],
    "m_VertexContext": {
        "m_Position": {
            "x": 0.0,
            "y": 0.0
        },
        "m_Blocks": []
    },
    "m_FragmentContext": {
        "m_Position": {
            "x": 0.0,
            "y": 0.0
        },
        "m_Blocks": []
    },
    "m_PreviewData": {
        "serializedMesh": {
            "m_SerializedMesh": "{\"mesh\":{\"instanceID\":0}}",
            "m_Guid": ""
        },
        "preventRotation": false
    },
    "m_Path": "Sub Graphs",
    "m_GraphPrecision": 1,
    "m_PreviewMode": 2,
    "m_OutputNode": {
        "m_Id": "5819d6afe629477daff8add987ee0e03"
    },
    "m_ActiveTargets": []
}

{
    "m_SGVersion": 1,
    "m_Type": "UnityEditor.ShaderGraph.ViewDirectionNode",
    "m_ObjectId": "0740f8974aff4ee9bcbfde6d888f3201",
    "m_Group": {
        "m_Id": ""
    },
    "m_Name": "View Direction",
    "m_DrawState": {
        "m_Expanded": true,
        "m_Position": {
            "serializedVersion": "2",
            "x": -592.5999145507813,
            "y": -95.60006713867188,
            "width": 206.39996337890626,
            "height": 128.80001831054688
        }
    },
    "m_Slots": [
        {
            "m_Id": "27a0a68019d544f0aba73e8c67b25c28"
        }
    ],
    "synonyms": [
        "eye direction"
    ],
    "m_Precision": 0,
    "m_PreviewExpanded": false,
    "m_PreviewMode": 2,
    "m_CustomColors": {
        "m_SerializableColors": []
    },
    "m_Space": 2
}

{
    "m_SGVersion": 0,
    "m_Type": "UnityEditor.ShaderGraph.DynamicVectorMaterialSlot",
    "m_ObjectId": "11e53e7236b4435c99fd700cdf5d0127",
    "m_Id": 2,
    "m_DisplayName": "Out",
    "m_SlotType": 1,
    "m_Hidden": false,
    "m_ShaderOutputName": "Out",
    "m_StageCapability": 3,
    "m_Value": {
        "x": 0.0,
        "y": 0.0,
        "z": 0.0,
        "w": 0.0
    },
    "m_DefaultValue": {
        "x": 0.0,
        "y": 0.0,
        "z": 0.0,
        "w": 0.0
    }
}

{
    "m_SGVersion": 0,
    "m_Type": "UnityEditor.ShaderGraph.Vector1MaterialSlot",
    "m_ObjectId": "23ba14c244d140e0bf3c3d8cf0bf8a2a",
    "m_Id": 7,
    "m_DisplayName": "Height",
    "m_SlotType": 1,
    "m_Hidden": false,
    "m_ShaderOutputName": "Height",
    "m_StageCapability": 3,
    "m_Value": 1.0,
    "m_DefaultValue": 1.0,
    "m_Labels": []
}

{
    "m_SGVersion": 0,
    "m_Type": "UnityEditor.ShaderGraph.Vector3MaterialSlot",
    "m_ObjectId": "27a0a68019d544f0aba73e8c67b25c28",
    "m_Id": 0,
    "m_DisplayName": "Out",
    "m_SlotType": 1,
    "m_Hidden": false,
    "m_ShaderOutputName": "Out",
    "m_StageCapability": 3,
    "m_Value": {
        "x": 0.0,
        "y": 0.0,
        "z": 0.0
    },
    "m_DefaultValue": {
        "x": 0.0,
        "y": 0.0,
        "z": 0.0
    },
    "m_Labels": []
}

{
    "m_SGVersion": 0,
    "m_Type": "UnityEditor.ShaderGraph.Vector1MaterialSlot",
    "m_ObjectId": "347cff65759a413f9e16c9b1d7e8febc",
    "m_Id": 5,
    "m_DisplayName": "Z Buffer Sign",
    "m_SlotType": 1,
    "m_Hidden": false,
    "m_ShaderOutputName": "Z Buffer Sign",
    "m_StageCapability": 3,
    "m_Value": 1.0,
    "m_DefaultValue": 1.0,
    "m_Labels": []
}

{
    "m_SGVersion": 0,
    "m_Type": "UnityEditor.ShaderGraph.DynamicVectorMaterialSlot",
    "m_ObjectId": "39989a16a7e847e597b6b51fc49208c7",
    "m_Id": 1,
    "m_DisplayName": "B",
    "m_SlotType": 0,
    "m_Hidden": false,
    "m_ShaderOutputName": "B",
    "m_StageCapability": 3,
    "m_Value": {
        "x": 0.0,
        "y": 1.0,
        "z": 0.0,
        "w": 0.0
    },
    "m_DefaultValue": {
        "x": 0.0,
        "y": 0.0,
        "z": 0.0,
        "w": 0.0
    }
}

{
    "m_SGVersion": 0,
    "m_Type": "UnityEditor.ShaderGraph.SceneDepthNode",
    "m_ObjectId": "3c6ddcbe008a4ba1841cb0bf63ee0e38",
    "m_Group": {
        "m_Id": ""
    },
    "m_Name": "Scene Depth",
    "m_DrawState": {
        "m_Expanded": true,
        "m_Position": {
            "serializedVersion": "2",
            "x": -110.39995574951172,
            "y": -224.80003356933595,
            "width": 145.5999755859375,
            "height": 110.40003204345703
        }
    },
    "m_Slots": [
        {
            "m_Id": "c2fa2b915dce44009d590531a4b91e76"
        },
        {
            "m_Id": "7eaf72fba3f04cffa5cadf9320d0b6cb"
        }
    ],
    "synonyms": [
        "zbuffer",
        "zdepth"
    ],
    "m_Precision": 0,
    "m_PreviewExpanded": true,
    "m_PreviewMode": 0,
    "m_CustomColors": {
        "m_SerializableColors": []
    },
    "m_DepthSamplingMode": 2
}

{
    "m_SGVersion": 0,
    "m_Type": "UnityEditor.ShaderGraph.DynamicVectorMaterialSlot",
    "m_ObjectId": "40483f1dc208425b928081bd86ca1487",
    "m_Id": 0,
    "m_DisplayName": "A",
    "m_SlotType": 0,
    "m_Hidden": false,
    "m_ShaderOutputName": "A",
    "m_StageCapability": 3,
    "m_Value": {
        "x": 0.0,
        "y": 0.0,
        "z": 0.0,
        "w": 0.0
    },
    "m_DefaultValue": {
        "x": 0.0,
        "y": 0.0,
        "z": 0.0,
        "w": 0.0
    }
}

{
    "m_SGVersion": 0,
    "m_Type": "UnityEditor.ShaderGraph.DynamicValueMaterialSlot",
    "m_ObjectId": "4120d38b23294ea497bd7755482da071",
    "m_Id": 1,
    "m_DisplayName": "B",
    "m_SlotType": 0,
    "m_Hidden": false,
    "m_ShaderOutputName": "B",
    "m_StageCapability": 3,
    "m_Value": {
        "e00": 2.0,
        "e01": 2.0,
        "e02": 2.0,
        "e03": 2.0,
        "e10": 2.0,
        "e11": 2.0,
        "e12": 2.0,
        "e13": 2.0,
        "e20": 2.0,
        "e21": 2.0,
        "e22": 2.0,
        "e23": 2.0,
        "e30": 2.0,
        "e31": 2.0,
        "e32": 2.0,
        "e33": 2.0
    },
    "m_DefaultValue": {
        "e00": 1.0,
        "e01": 0.0,
        "e02": 0.0,
        "e03": 0.0,
        "e10": 0.0,
        "e11": 1.0,
        "e12": 0.0,
        "e13": 0.0,
        "e20": 0.0,
        "e21": 0.0,
        "e22": 1.0,
        "e23": 0.0,
        "e30": 0.0,
        "e31": 0.0,
        "e32": 0.0,
        "e33": 1.0
    }
}

{
    "m_SGVersion": 0,
    "m_Type": "UnityEditor.ShaderGraph.DynamicValueMaterialSlot",
    "m_ObjectId": "476dd4a1077f47b889b20ae18ecc0d41",
    "m_Id": 2,
    "m_DisplayName": "Out",
    "m_SlotType": 1,
    "m_Hidden": false,
    "m_ShaderOutputName": "Out",
    "m_StageCapability": 3,
    "m_Value": {
        "e00": 0.0,
        "e01": 0.0,
        "e02": 0.0,
        "e03": 0.0,
        "e10": 0.0,
        "e11": 0.0,
        "e12": 0.0,
        "e13": 0.0,
        "e20": 0.0,
        "e21": 0.0,
        "e22": 0.0,
        "e23": 0.0,
        "e30": 0.0,
        "e31": 0.0,
        "e32": 0.0,
        "e33": 0.0
    },
    "m_DefaultValue": {
        "e00": 1.0,
        "e01": 0.0,
        "e02": 0.0,
        "e03": 0.0,
        "e10": 0.0,
        "e11": 1.0,
        "e12": 0.0,
        "e13": 0.0,
        "e20": 0.0,
        "e21": 0.0,
        "e22": 1.0,
        "e23": 0.0,
        "e30": 0.0,
        "e31": 0.0,
        "e32": 0.0,
        "e33": 1.0
    }
}

{
    "m_SGVersion": 0,
    "m_Type": "UnityEditor.ShaderGraph.CategoryData",
    "m_ObjectId": "479df6f32b304a3089248785ff29cf1d",
    "m_Name": "",
    "m_ChildObjectList": []
}

{
    "m_SGVersion": 0,
    "m_Type": "UnityEditor.ShaderGraph.SubGraphOutputNode",
    "m_ObjectId": "5819d6afe629477daff8add987ee0e03",
    "m_Group": {
        "m_Id": ""
    },
    "m_Name": "Output",
    "m_DrawState": {
        "m_Expanded": true,
        "m_Position": {
            "serializedVersion": "2",
            "x": 522.4000854492188,
            "y": 51.200042724609378,
            "width": 86.39990234375,
            "height": 76.7999496459961
        }
    },
    "m_Slots": [
        {
            "m_Id": "a8dbe1d6d9cd48978c7b05ee9ec7ad41"
        }
    ],
    "synonyms": [],
    "m_Precision": 0,
    "m_PreviewExpanded": true,
    "m_PreviewMode": 0,
    "m_CustomColors": {
        "m_SerializableColors": []
    },
    "IsFirstSlotValid": true
}

{
    "m_SGVersion": 0,
    "m_Type": "UnityEditor.ShaderGraph.AddNode",
    "m_ObjectId": "5a6a4649eb6d46578be69fb975df9e0e",
    "m_Group": {
        "m_Id": ""
    },
    "m_Name": "Add",
    "m_DrawState": {
        "m_Expanded": true,
        "m_Position": {
            "serializedVersion": "2",
            "x": 363.20001220703127,
            "y": 51.200042724609378,
            "width": 130.39999389648438,
            "height": 117.60000610351563
        }
    },
    "m_Slots": [
        {
            "m_Id": "903339ba135e4bdc9ee821ca48275694"
        },
        {
            "m_Id": "936c24587755491a883c508058bdb12f"
        },
        {
            "m_Id": "895cc21833ad4bf5a36fc0b032d91f5e"
        }
    ],
    "synonyms": [
        "addition",
        "sum",
        "plus"
    ],
    "m_Precision": 0,
    "m_PreviewExpanded": false,
    "m_PreviewMode": 0,
    "m_CustomColors": {
        "m_SerializableColors": []
    }
}

{
    "m_SGVersion": 0,
    "m_Type": "UnityEditor.ShaderGraph.Vector1MaterialSlot",
    "m_ObjectId": "61e957eb225a4f6da783ad6fb237cfb6",
    "m_Id": 6,
    "m_DisplayName": "Width",
    "m_SlotType": 1,
    "m_Hidden": false,
    "m_ShaderOutputName": "Width",
    "m_StageCapability": 3,
    "m_Value": 1.0,
    "m_DefaultValue": 1.0,
    "m_Labels": []
}

{
    "m_SGVersion": 0,
    "m_Type": "UnityEditor.ShaderGraph.MultiplyNode",
    "m_ObjectId": "711cf18167574b5c9f4b8f9b8b5d2f7a",
    "m_Group": {
        "m_Id": ""
    },
    "m_Name": "Multiply",
    "m_DrawState": {
        "m_Expanded": true,
        "m_Position": {
            "serializedVersion": "2",
            "x": 130.4000244140625,
            "y": -169.6000213623047,
            "width": 130.4000244140625,
            "height": 117.5999984741211
        }
    },
    "m_Slots": [
        {
            "m_Id": "d89a86410a9346c4aa2fff423dac5946"
        },
        {
            "m_Id": "4120d38b23294ea497bd7755482da071"
        },
        {
            "m_Id": "476dd4a1077f47b889b20ae18ecc0d41"
        }
    ],
    "synonyms": [
        "multiplication",
        "times",
        "x"
    ],
    "m_Precision": 0,
    "m_PreviewExpanded": false,
    "m_PreviewMode": 0,
    "m_CustomColors": {
        "m_SerializableColors": []
    }
}

{
    "m_SGVersion": 0,
    "m_Type": "UnityEditor.ShaderGraph.CameraNode",
    "m_ObjectId": "75743f5a0f6d41908f666b9d4651cd68",
    "m_Group": {
        "m_Id": ""
    },
    "m_Name": "Camera",
    "m_DrawState": {
        "m_Expanded": true,
        "m_Position": {
            "serializedVersion": "2",
            "x": -592.5999755859375,
            "y": 82.79995727539063,
            "width": 121.5999755859375,
            "height": 244.80007934570313
        }
    },
    "m_Slots": [
        {
            "m_Id": "894680fa34a54d9990ff9c73f670f1c6"
        },
        {
            "m_Id": "991cedcf590b4dfbbb809aafcdf2d20c"
        },
        {
            "m_Id": "bda088018c3f4c98925176a7a03b47a3"
        },
        {
            "m_Id": "fac879f4270241f2a8cba663179d3276"
        },
        {
            "m_Id": "c6647d0415b6496cbac44f29246355a1"
        },
        {
            "m_Id": "347cff65759a413f9e16c9b1d7e8febc"
        },
        {
            "m_Id": "61e957eb225a4f6da783ad6fb237cfb6"
        },
        {
            "m_Id": "23ba14c244d140e0bf3c3d8cf0bf8a2a"
        }
    ],
    "synonyms": [
        "position",
        "direction",
        "orthographic",
        "near plane",
        "far plane",
        "width",
        "height"
    ],
    "m_Precision": 0,
    "m_PreviewExpanded": true,
    "m_PreviewMode": 0,
    "m_CustomColors": {
        "m_SerializableColors": []
    }
}

{
    "m_SGVersion": 0,
    "m_Type": "UnityEditor.ShaderGraph.Vector1MaterialSlot",
    "m_ObjectId": "7eaf72fba3f04cffa5cadf9320d0b6cb",
    "m_Id": 1,
    "m_DisplayName": "Out",
    "m_SlotType": 1,
    "m_Hidden": false,
    "m_ShaderOutputName": "Out",
    "m_StageCapability": 2,
    "m_Value": 0.0,
    "m_DefaultValue": 0.0,
    "m_Labels": []
}

{
    "m_SGVersion": 0,
    "m_Type": "UnityEditor.ShaderGraph.Vector1MaterialSlot",
    "m_ObjectId": "7fa5e08756c14030824862fd8a08f394",
    "m_Id": 2,
    "m_DisplayName": "Out",
    "m_SlotType": 1,
    "m_Hidden": false,
    "m_ShaderOutputName": "Out",
    "m_StageCapability": 3,
    "m_Value": 0.0,
    "m_DefaultValue": 0.0,
    "m_Labels": []
}

{
    "m_SGVersion": 0,
    "m_Type": "UnityEditor.ShaderGraph.DynamicVectorMaterialSlot",
    "m_ObjectId": "8080b1eebd72487cbc22089b11c81f22",
    "m_Id": 1,
    "m_DisplayName": "B",
    "m_SlotType": 0,
    "m_Hidden": false,
    "m_ShaderOutputName": "B",
    "m_StageCapability": 3,
    "m_Value": {
        "x": 2.0,
        "y": 2.0,
        "z": 2.0,
        "w": 2.0
    },
    "m_DefaultValue": {
        "x": 0.0,
        "y": 0.0,
        "z": 0.0,
        "w": 0.0
    }
}

{
    "m_SGVersion": 0,
    "m_Type": "UnityEditor.ShaderGraph.Vector3MaterialSlot",
    "m_ObjectId": "894680fa34a54d9990ff9c73f670f1c6",
    "m_Id": 0,
    "m_DisplayName": "Position",
    "m_SlotType": 1,
    "m_Hidden": false,
    "m_ShaderOutputName": "Position",
    "m_StageCapability": 3,
    "m_Value": {
        "x": 0.0,
        "y": 0.0,
        "z": 0.0
    },
    "m_DefaultValue": {
        "x": 0.0,
        "y": 0.0,
        "z": 0.0
    },
    "m_Labels": []
}

{
    "m_SGVersion": 0,
    "m_Type": "UnityEditor.ShaderGraph.DynamicVectorMaterialSlot",
    "m_ObjectId": "895cc21833ad4bf5a36fc0b032d91f5e",
    "m_Id": 2,
    "m_DisplayName": "Out",
    "m_SlotType": 1,
    "m_Hidden": false,
    "m_ShaderOutputName": "Out",
    "m_StageCapability": 3,
    "m_Value": {
        "x": 0.0,
        "y": 0.0,
        "z": 0.0,
        "w": 0.0
    },
    "m_DefaultValue": {
        "x": 0.0,
        "y": 0.0,
        "z": 0.0,
        "w": 0.0
    }
}

{
    "m_SGVersion": 0,
    "m_Type": "UnityEditor.ShaderGraph.DynamicVectorMaterialSlot",
    "m_ObjectId": "903339ba135e4bdc9ee821ca48275694",
    "m_Id": 0,
    "m_DisplayName": "A",
    "m_SlotType": 0,
    "m_Hidden": false,
    "m_ShaderOutputName": "A",
    "m_StageCapability": 3,
    "m_Value": {
        "x": 0.0,
        "y": 0.0,
        "z": 0.0,
        "w": 0.0
    },
    "m_DefaultValue": {
        "x": 0.0,
        "y": 0.0,
        "z": 0.0,
        "w": 0.0
    }
}

{
    "m_SGVersion": 0,
    "m_Type": "UnityEditor.ShaderGraph.DynamicVectorMaterialSlot",
    "m_ObjectId": "936c24587755491a883c508058bdb12f",
    "m_Id": 1,
    "m_DisplayName": "B",
    "m_SlotType": 0,
    "m_Hidden": false,
    "m_ShaderOutputName": "B",
    "m_StageCapability": 3,
    "m_Value": {
        "x": 0.0,
        "y": 0.0,
        "z": 0.0,
        "w": 0.0
    },
    "m_DefaultValue": {
        "x": 0.0,
        "y": 0.0,
        "z": 0.0,
        "w": 0.0
    }
}

{
    "m_SGVersion": 0,
    "m_Type": "UnityEditor.ShaderGraph.Vector3MaterialSlot",
    "m_ObjectId": "991cedcf590b4dfbbb809aafcdf2d20c",
    "m_Id": 1,
    "m_DisplayName": "Direction",
    "m_SlotType": 1,
    "m_Hidden": false,
    "m_ShaderOutputName": "Direction",
    "m_StageCapability": 3,
    "m_Value": {
        "x": 0.0,
        "y": 0.0,
        "z": 0.0
    },
    "m_DefaultValue": {
        "x": 0.0,
        "y": 0.0,
        "z": 0.0
    },
    "m_Labels": []
}

{
    "m_SGVersion": 0,
    "m_Type": "UnityEditor.ShaderGraph.Vector3MaterialSlot",
    "m_ObjectId": "a8dbe1d6d9cd48978c7b05ee9ec7ad41",
    "m_Id": 0,
    "m_DisplayName": "Out",
    "m_SlotType": 0,
    "m_Hidden": false,
    "m_ShaderOutputName": "Out",
    "m_StageCapability": 2,
    "m_Value": {
        "x": 0.0,
        "y": 0.0,
        "z": 0.0
    },
    "m_DefaultValue": {
        "x": 0.0,
        "y": 0.0,
        "z": 0.0
    },
    "m_Labels": []
}

{
    "m_SGVersion": 0,
    "m_Type": "UnityEditor.ShaderGraph.DivideNode",
    "m_ObjectId": "ac6b01159f8f44e085fb097a633500b3",
    "m_Group": {
        "m_Id": ""
    },
    "m_Name": "Divide",
    "m_DrawState": {
        "m_Expanded": true,
        "m_Position": {
            "serializedVersion": "2",
            "x": -110.99993896484375,
            "y": -95.60006713867188,
            "width": 130.39999389648438,
            "height": 117.60000610351563
        }
    },
    "m_Slots": [
        {
            "m_Id": "c3f0388956494982992f2e2361bc16f7"
        },
        {
            "m_Id": "8080b1eebd72487cbc22089b11c81f22"
        },
        {
            "m_Id": "11e53e7236b4435c99fd700cdf5d0127"
        }
    ],
    "synonyms": [
        "division",
        "divided by"
    ],
    "m_Precision": 0,
    "m_PreviewExpanded": false,
    "m_PreviewMode": 0,
    "m_CustomColors": {
        "m_SerializableColors": []
    }
}

{
    "m_SGVersion": 0,
    "m_Type": "UnityEditor.ShaderGraph.Vector1MaterialSlot",
    "m_ObjectId": "bda088018c3f4c98925176a7a03b47a3",
    "m_Id": 2,
    "m_DisplayName": "Orthographic",
    "m_SlotType": 1,
    "m_Hidden": false,
    "m_ShaderOutputName": "Orthographic",
    "m_StageCapability": 3,
    "m_Value": 0.0,
    "m_DefaultValue": 0.0,
    "m_Labels": []
}

{
    "m_SGVersion": 0,
    "m_Type": "UnityEditor.ShaderGraph.ScreenPositionMaterialSlot",
    "m_ObjectId": "c2fa2b915dce44009d590531a4b91e76",
    "m_Id": 0,
    "m_DisplayName": "UV",
    "m_SlotType": 0,
    "m_Hidden": false,
    "m_ShaderOutputName": "UV",
    "m_StageCapability": 3,
    "m_Value": {
        "x": 0.0,
        "y": 0.0,
        "z": 0.0,
        "w": 0.0
    },
    "m_DefaultValue": {
        "x": 0.0,
        "y": 0.0,
        "z": 0.0,
        "w": 0.0
    },
    "m_Labels": [],
    "m_ScreenSpaceType": 0
}

{
    "m_SGVersion": 0,
    "m_Type": "UnityEditor.ShaderGraph.DynamicVectorMaterialSlot",
    "m_ObjectId": "c3f0388956494982992f2e2361bc16f7",
    "m_Id": 0,
    "m_DisplayName": "A",
    "m_SlotType": 0,
    "m_Hidden": false,
    "m_ShaderOutputName": "A",
    "m_StageCapability": 3,
    "m_Value": {
        "x": 0.0,
        "y": 0.0,
        "z": 0.0,
        "w": 0.0
    },
    "m_DefaultValue": {
        "x": 0.0,
        "y": 0.0,
        "z": 0.0,
        "w": 0.0
    }
}

{
    "m_SGVersion": 0,
    "m_Type": "UnityEditor.ShaderGraph.Vector1MaterialSlot",
    "m_ObjectId": "c6647d0415b6496cbac44f29246355a1",
    "m_Id": 4,
    "m_DisplayName": "Far Plane",
    "m_SlotType": 1,
    "m_Hidden": false,
    "m_ShaderOutputName": "Far Plane",
    "m_StageCapability": 3,
    "m_Value": 1.0,
    "m_DefaultValue": 1.0,
    "m_Labels": []
}

{
    "m_SGVersion": 0,
    "m_Type": "UnityEditor.ShaderGraph.DynamicValueMaterialSlot",
    "m_ObjectId": "d89a86410a9346c4aa2fff423dac5946",
    "m_Id": 0,
    "m_DisplayName": "A",
    "m_SlotType": 0,
    "m_Hidden": false,
    "m_ShaderOutputName": "A",
    "m_StageCapability": 3,
    "m_Value": {
        "e00": 0.0,
        "e01": 0.0,
        "e02": 0.0,
        "e03": 0.0,
        "e10": 0.0,
        "e11": 0.0,
        "e12": 0.0,
        "e13": 0.0,
        "e20": 0.0,
        "e21": 0.0,
        "e22": 0.0,
        "e23": 0.0,
        "e30": 0.0,
        "e31": 0.0,
        "e32": 0.0,
        "e33": 0.0
    },
    "m_DefaultValue": {
        "e00": 1.0,
        "e01": 0.0,
        "e02": 0.0,
        "e03": 0.0,
        "e10": 0.0,
        "e11": 1.0,
        "e12": 0.0,
        "e13": 0.0,
        "e20": 0.0,
        "e21": 0.0,
        "e22": 1.0,
        "e23": 0.0,
        "e30": 0.0,
        "e31": 0.0,
        "e32": 0.0,
        "e33": 1.0
    }
}

{
    "m_SGVersion": 0,
    "m_Type": "UnityEditor.ShaderGraph.DotProductNode",
    "m_ObjectId": "eb2133f9e52a4462babbdf18c89d4179",
    "m_Group": {
        "m_Id": ""
    },
    "m_Name": "Dot Product",
    "m_DrawState": {
        "m_Expanded": true,
        "m_Position": {
            "serializedVersion": "2",
            "x": -303.7999267578125,
            "y": -6.8000640869140629,
            "width": 128.0,
            "height": 117.60002136230469
        }
    },
    "m_Slots": [
        {
            "m_Id": "40483f1dc208425b928081bd86ca1487"
        },
        {
            "m_Id": "39989a16a7e847e597b6b51fc49208c7"
        },
        {
            "m_Id": "7fa5e08756c14030824862fd8a08f394"
        }
    ],
    "synonyms": [
        "scalar product"
    ],
    "m_Precision": 0,
    "m_PreviewExpanded": false,
    "m_PreviewMode": 0,
    "m_CustomColors": {
        "m_SerializableColors": []
    }
}

{
    "m_SGVersion": 0,
    "m_Type": "UnityEditor.ShaderGraph.Vector1MaterialSlot",
    "m_ObjectId": "fac879f4270241f2a8cba663179d3276",
    "m_Id": 3,
    "m_DisplayName": "Near Plane",
    "m_SlotType": 1,
    "m_Hidden": false,
    "m_ShaderOutputName": "Near Plane",
    "m_StageCapability": 3,
    "m_Value": 0.0,
    "m_DefaultValue": 0.0,
    "m_Labels": []
}

