%YAML 1.1
%TAG !u! tag:unity3d.com,2011:
--- !u!1 &773928202047791218
GameObject:
  m_ObjectHideFlags: 0
  m_CorrespondingSourceObject: {fileID: 0}
  m_PrefabInstance: {fileID: 0}
  m_PrefabAsset: {fileID: 0}
  serializedVersion: 6
  m_Component:
  - component: {fileID: 773928202047791220}
  - component: {fileID: 773928202047791219}
  - component: {fileID: 8981061965733005379}
  m_Layer: 0
  m_Name: ColoredVolume
  m_TagString: Untagged
  m_Icon: {fileID: 0}
  m_NavMeshLayer: 0
  m_StaticEditorFlags: 0
  m_IsActive: 1
--- !u!4 &773928202047791220
Transform:
  m_ObjectHideFlags: 0
  m_CorrespondingSourceObject: {fileID: 0}
  m_PrefabInstance: {fileID: 0}
  m_PrefabAsset: {fileID: 0}
  m_GameObject: {fileID: 773928202047791218}
  m_LocalRotation: {x: 0, y: 0, z: 0, w: 1}
  m_LocalPosition: {x: -1.0336132, y: 2.7426674, z: -3.4798706}
  m_LocalScale: {x: 1, y: 1, z: 1}
  m_ConstrainProportionsScale: 0
  m_Children: []
  m_Father: {fileID: 0}
  m_RootOrder: 0
  m_LocalEulerAnglesHint: {x: 0, y: 0, z: 0}
--- !u!114 &773928202047791219
MonoBehaviour:
  m_ObjectHideFlags: 0
  m_CorrespondingSourceObject: {fileID: 0}
  m_PrefabInstance: {fileID: 0}
  m_PrefabAsset: {fileID: 0}
  m_GameObject: {fileID: 773928202047791218}
  m_Enabled: 1
  m_EditorHideFlags: 0
  m_Script: {fileID: 11500000, guid: 172515602e62fb746b5d573b38a5fe58, type: 3}
  m_Name: 
  m_EditorClassIdentifier: 
  m_IsGlobal: 1
  priority: 0
  blendDistance: 0
  weight: 1
  sharedProfile: {fileID: 11400000, guid: 07341e73a6b9f6d4bb625a91f9051125, type: 2}
--- !u!114 &8981061965733005379
MonoBehaviour:
  m_ObjectHideFlags: 0
  m_CorrespondingSourceObject: {fileID: 0}
  m_PrefabInstance: {fileID: 0}
  m_PrefabAsset: {fileID: 0}
  m_GameObject: {fileID: 773928202047791218}
  m_Enabled: 1
  m_EditorHideFlags: 0
  m_Script: {fileID: 11500000, guid: 8f9c10950d550b149bd50f877bc47e26, type: 3}
  m_Name: 
  m_EditorClassIdentifier: 
  instantiated: 0
  fresh: 0
  introduced: 0
  ended: 0
  triggered: 0
  animating: 0
  animatingTrigger: 0
  animatingKnob: 0
  starting: 0
  ending: 0
  lerpValue: 0
  triggerLerpValue: 0
  on: 0
  _i: 0
  lastTrigger:
    oi: 0
    id: 
    preset: 
    trigger: 
    propertyIndex: 0
    propertyName: 
    startTime: 0
    startTime2: -999
    endTime: 0
    endTime2: -999
    onTime: 0.18
    onTime2: -999
    offTime: 3
    offTime2: -999
    value:
      x: -999
      x2: -999
      y: -999
      y2: -999
      z: -999
      z2: -999
      a: -999
      a2: -999
      uniform: 0
      relative: 0
      absolute: 0
      multiple: {x: 0, y: 0, z: 0}
    start:
      x: -999
      x2: -999
      y: -999
      y2: -999
      z: -999
      z2: -999
      a: -999
      a2: -999
      uniform: 0
      relative: 0
      absolute: 0
      multiple: {x: 0, y: 0, z: 0}
    target:
      x: -999
      x2: -999
      y: -999
      y2: -999
      z: -999
      z2: -999
      a: -999
      a2: -999
      uniform: 0
      relative: 0
      absolute: 0
      multiple: {x: 0, y: 0, z: 0}
    knob:
      x: -999
      x2: -999
      y: -999
      y2: -999
      z: -999
      z2: -999
      a: -999
      a2: -999
      uniform: 0
      relative: 0
      absolute: 0
      multiple: {x: 0, y: 0, z: 0}
    end:
      x: -999
      x2: -999
      y: -999
      y2: -999
      z: -999
      z2: -999
      a: -999
      a2: -999
      uniform: 0
      relative: 0
      absolute: 0
      multiple: {x: 0, y: 0, z: 0}
    color:
      gray: -999
      gray2: -999
      _gray: 0
      alpha: 1
      alpha2: -999
      _alpha: 0
      uniform: 1
      r: -999
      r2: -999
      _r: 0
      g: -999
      g2: -999
      _g: 0
      b: -999
      b2: -999
      _b: 0
      sat: -999
      sat2: -999
      _sat: 0
      brightness: -999
      brightness2: -999
      _brightness: 0
      hue: -999
      hue2: -999
      _hue: 0
      color: 
      blendMode: 0
    startColor:
      gray: -999
      gray2: -999
      _gray: 0
      alpha: 1
      alpha2: -999
      _alpha: 0
      uniform: 1
      r: -999
      r2: -999
      _r: 0
      g: -999
      g2: -999
      _g: 0
      b: -999
      b2: -999
      _b: 0
      sat: -999
      sat2: -999
      _sat: 0
      brightness: -999
      brightness2: -999
      _brightness: 0
      hue: -999
      hue2: -999
      _hue: 0
      color: 
      blendMode: 0
    targetColor:
      gray: -999
      gray2: -999
      _gray: 0
      alpha: 1
      alpha2: -999
      _alpha: 0
      uniform: 1
      r: -999
      r2: -999
      _r: 0
      g: -999
      g2: -999
      _g: 0
      b: -999
      b2: -999
      _b: 0
      sat: -999
      sat2: -999
      _sat: 0
      brightness: -999
      brightness2: -999
      _brightness: 0
      hue: -999
      hue2: -999
      _hue: 0
      color: 
      blendMode: 0
    knobColor:
      gray: -999
      gray2: -999
      _gray: 0
      alpha: 1
      alpha2: -999
      _alpha: 0
      uniform: 1
      r: -999
      r2: -999
      _r: 0
      g: -999
      g2: -999
      _g: 0
      b: -999
      b2: -999
      _b: 0
      sat: -999
      sat2: -999
      _sat: 0
      brightness: -999
      brightness2: -999
      _brightness: 0
      hue: -999
      hue2: -999
      _hue: 0
      color: 
      blendMode: 0
    endColor:
      gray: -999
      gray2: -999
      _gray: 0
      alpha: 1
      alpha2: -999
      _alpha: 0
      uniform: 1
      r: -999
      r2: -999
      _r: 0
      g: -999
      g2: -999
      _g: 0
      b: -999
      b2: -999
      _b: 0
      sat: -999
      sat2: -999
      _sat: 0
      brightness: -999
      brightness2: -999
      _brightness: 0
      hue: -999
      hue2: -999
      _hue: 0
      color: 
      blendMode: 0
    multiplier: 1
    multiplier2: -999
    startString: 
    valueString: 
    targetString: 
    endString: 
    startMedia:
      oi: 0
      id: 
      path: 
      repeat: 0
      cols: 1
      rows: 1
      totalFrames: 0
      stops: 3
      pingpong: 0
      numVariants: 0
      variant_i: 0
      _path: 
      width: 0
      height: 0
      ratio: 1
      timesRepeated: 0
      currentFrame: 0
      startFrame: 0
      startFrame2: -999
      endFrame: 0
      endFrame2: -999
      frame: 0
      hideOnComplete: 0
      ended: 0
      fullWidth: 0
      fullHeight: 0
      loadedTexture: {fileID: 0}
      loadedTextures: []
      loadedVideoClip: {fileID: 0}
      loadedVideoClips: []
      sortingOrder: 0
      sortByZ: 1
    media:
      oi: 0
      id: 
      path: 
      repeat: 0
      cols: 1
      rows: 1
      totalFrames: 0
      stops: 3
      pingpong: 0
      numVariants: 0
      variant_i: 0
      _path: 
      width: 0
      height: 0
      ratio: 1
      timesRepeated: 0
      currentFrame: 0
      startFrame: 0
      startFrame2: -999
      endFrame: 0
      endFrame2: -999
      frame: 0
      hideOnComplete: 0
      ended: 0
      fullWidth: 0
      fullHeight: 0
      loadedTexture: {fileID: 0}
      loadedTextures: []
      loadedVideoClip: {fileID: 0}
      loadedVideoClips: []
      sortingOrder: 0
      sortByZ: 1
    targetMedia:
      oi: 0
      id: 
      path: 
      repeat: 0
      cols: 1
      rows: 1
      totalFrames: 0
      stops: 3
      pingpong: 0
      numVariants: 0
      variant_i: 0
      _path: 
      width: 0
      height: 0
      ratio: 1
      timesRepeated: 0
      currentFrame: 0
      startFrame: 0
      startFrame2: -999
      endFrame: 0
      endFrame2: -999
      frame: 0
      hideOnComplete: 0
      ended: 0
      fullWidth: 0
      fullHeight: 0
      loadedTexture: {fileID: 0}
      loadedTextures: []
      loadedVideoClip: {fileID: 0}
      loadedVideoClips: []
      sortingOrder: 0
      sortByZ: 1
    endMedia:
      oi: 0
      id: 
      path: 
      repeat: 0
      cols: 1
      rows: 1
      totalFrames: 0
      stops: 3
      pingpong: 0
      numVariants: 0
      variant_i: 0
      _path: 
      width: 0
      height: 0
      ratio: 1
      timesRepeated: 0
      currentFrame: 0
      startFrame: 0
      startFrame2: -999
      endFrame: 0
      endFrame2: -999
      frame: 0
      hideOnComplete: 0
      ended: 0
      fullWidth: 0
      fullHeight: 0
      loadedTexture: {fileID: 0}
      loadedTextures: []
      loadedVideoClip: {fileID: 0}
      loadedVideoClips: []
      sortingOrder: 0
      sortByZ: 1
    disabled: 0
    hideOnComplete: 0
    hideOnTarget: 0
    onDelay: 0
    offDelay: 0
    startDelay: 0
    endDelay: 0
    timesTriggered: 0
    groupIndex: 0
    group: 
    childIndex: -1
    easeIn: 4
    easeOut: 4
    activeBehaviour: 
    instantiated: 0
    fresh: 0
    introduced: 0
    ended: 0
    triggered: 0
    animating: 0
    animatingTrigger: 0
    animatingTriggerOff: 0
    animatingKnob: 0
    starting: 0
    ending: 0
    lerpValue: 0
    triggerLerpValue: 0
    on: 0
    _i: 0
    baseValue: 0
    startValue: 0
    endValue: 0
    currentValue: 0
    currentAnimatedValue: 0
    targetValue: 0
    lastTargetValue: 0
    animatedValue: 0
    baseColorValue: {r: 0, g: 0, b: 0, a: 0}
    startColorValue: {r: 0, g: 0, b: 0, a: 0}
    endColorValue: {r: 0, g: 0, b: 0, a: 0}
    currentColorValue: {r: 0, g: 0, b: 0, a: 0}
    currentAnimatedColor: {r: 0, g: 0, b: 0, a: 0}
    targetColorValue: {r: 0, g: 0, b: 0, a: 0}
    lastTargetColorValue: {r: 0, g: 0, b: 0, a: 0}
    animatedColorValue: {r: 0, g: 0, b: 0, a: 0}
    knobValue: 0
    triggers: []
    activeType: 0
  triggers: []
  instance: {fileID: 0}
  root: {fileID: 0}
  triggerController: {fileID: 0}
  multiplier: 1
