{
    "m_SGVersion": 3,
    "m_Type": "UnityEditor.ShaderGraph.GraphData",
    "m_ObjectId": "b6a95cbb260746e19f8d3ecad56cfc9d",
    "m_Properties": [
        {
            "m_Id": "3d8f56c18abc4aacaf8a7e8fe8296047"
        },
        {
            "m_Id": "abb02989851847be87c46ca93e247fba"
        },
        {
            "m_Id": "e28506b79d0a436ebe96c2e4ab775877"
        },
        {
            "m_Id": "188674ed5992404a8eef7a72b40a1abe"
        },
        {
            "m_Id": "970dcfdf074c43508e44713faac23e5e"
        },
        {
            "m_Id": "eed48c1eb8d149048f29a28e41bdc3b8"
        },
        {
            "m_Id": "8594ecdbe217424b907b5f878a4fbe54"
        },
        {
            "m_Id": "f977cb65dfe94f54b3f911574c139ff7"
        }
    ],
    "m_Keywords": [],
    "m_Dropdowns": [],
    "m_CategoryData": [
        {
            "m_Id": "12d5fe2614034f939e73fd822042a47f"
        }
    ],
    "m_Nodes": [
        {
            "m_Id": "c2f092b89feb4f41b914c9575d26c2c4"
        },
        {
            "m_Id": "bc62407dd032488cbc9e1d8aa90cae8b"
        },
        {
            "m_Id": "4d9cc88193df4afa9d9c615d767a5de7"
        },
        {
            "m_Id": "66c98877ff43449c868264e99b1e66dc"
        },
        {
            "m_Id": "63b5209ccc3041118e0d3d65d7e76c13"
        },
        {
            "m_Id": "95b2802079414ed59f5e03bbad9c88a4"
        },
        {
            "m_Id": "92aaf5e022d44400bdad02568bf157c4"
        },
        {
            "m_Id": "a1e962d7d6894fbb96251409c2359274"
        },
        {
            "m_Id": "be0bd3d633734f78995d9695f7c57b3c"
        },
        {
            "m_Id": "f674a5aacc524e02b15484a9a4ba2b18"
        },
        {
            "m_Id": "7118bbbe118e43c082803804ac99cb13"
        },
        {
            "m_Id": "597868c1d2fa4480987ce4529a730eff"
        },
        {
            "m_Id": "1d218ba56788464fac0cebe7ae112ad5"
        },
        {
            "m_Id": "babd9f206dff43128765c8f8a74cd8b1"
        },
        {
            "m_Id": "9b41430420da4da0877a6e57a16255c9"
        },
        {
            "m_Id": "ba795df1b6bd43a39790092ee4c2c948"
        },
        {
            "m_Id": "7787e1ee7b564c74a605beef6ec33807"
        }
    ],
    "m_GroupDatas": [],
    "m_StickyNoteDatas": [],
    "m_Edges": [
        {
            "m_OutputSlot": {
                "m_Node": {
                    "m_Id": "1d218ba56788464fac0cebe7ae112ad5"
                },
                "m_SlotId": 0
            },
            "m_InputSlot": {
                "m_Node": {
                    "m_Id": "92aaf5e022d44400bdad02568bf157c4"
                },
                "m_SlotId": 0
            }
        },
        {
            "m_OutputSlot": {
                "m_Node": {
                    "m_Id": "597868c1d2fa4480987ce4529a730eff"
                },
                "m_SlotId": 0
            },
            "m_InputSlot": {
                "m_Node": {
                    "m_Id": "be0bd3d633734f78995d9695f7c57b3c"
                },
                "m_SlotId": 0
            }
        },
        {
            "m_OutputSlot": {
                "m_Node": {
                    "m_Id": "9b41430420da4da0877a6e57a16255c9"
                },
                "m_SlotId": 0
            },
            "m_InputSlot": {
                "m_Node": {
                    "m_Id": "babd9f206dff43128765c8f8a74cd8b1"
                },
                "m_SlotId": 0
            }
        },
        {
            "m_OutputSlot": {
                "m_Node": {
                    "m_Id": "ba795df1b6bd43a39790092ee4c2c948"
                },
                "m_SlotId": 0
            },
            "m_InputSlot": {
                "m_Node": {
                    "m_Id": "66c98877ff43449c868264e99b1e66dc"
                },
                "m_SlotId": 0
            }
        },
        {
            "m_OutputSlot": {
                "m_Node": {
                    "m_Id": "ba795df1b6bd43a39790092ee4c2c948"
                },
                "m_SlotId": 0
            },
            "m_InputSlot": {
                "m_Node": {
                    "m_Id": "7787e1ee7b564c74a605beef6ec33807"
                },
                "m_SlotId": 0
            }
        },
        {
            "m_OutputSlot": {
                "m_Node": {
                    "m_Id": "babd9f206dff43128765c8f8a74cd8b1"
                },
                "m_SlotId": 4
            },
            "m_InputSlot": {
                "m_Node": {
                    "m_Id": "7787e1ee7b564c74a605beef6ec33807"
                },
                "m_SlotId": 1
            }
        }
    ],
    "m_VertexContext": {
        "m_Position": {
            "x": 0.0,
            "y": 0.0
        },
        "m_Blocks": [
            {
                "m_Id": "c2f092b89feb4f41b914c9575d26c2c4"
            },
            {
                "m_Id": "bc62407dd032488cbc9e1d8aa90cae8b"
            },
            {
                "m_Id": "4d9cc88193df4afa9d9c615d767a5de7"
            }
        ]
    },
    "m_FragmentContext": {
        "m_Position": {
            "x": 0.0,
            "y": 200.0
        },
        "m_Blocks": [
            {
                "m_Id": "66c98877ff43449c868264e99b1e66dc"
            },
            {
                "m_Id": "63b5209ccc3041118e0d3d65d7e76c13"
            },
            {
                "m_Id": "95b2802079414ed59f5e03bbad9c88a4"
            },
            {
                "m_Id": "92aaf5e022d44400bdad02568bf157c4"
            },
            {
                "m_Id": "a1e962d7d6894fbb96251409c2359274"
            },
            {
                "m_Id": "be0bd3d633734f78995d9695f7c57b3c"
            },
            {
                "m_Id": "f674a5aacc524e02b15484a9a4ba2b18"
            },
            {
                "m_Id": "7118bbbe118e43c082803804ac99cb13"
            }
        ]
    },
    "m_PreviewData": {
        "serializedMesh": {
            "m_SerializedMesh": "{\"mesh\":{\"instanceID\":0}}",
            "m_Guid": ""
        },
        "preventRotation": false
    },
    "m_Path": "Shader Graphs",
    "m_GraphPrecision": 1,
    "m_PreviewMode": 2,
    "m_OutputNode": {
        "m_Id": ""
    },
    "m_ActiveTargets": [
        {
            "m_Id": "da7e36a414554f31a318c193fea3c57d"
        }
    ]
}

{
    "m_SGVersion": 0,
    "m_Type": "UnityEditor.ShaderGraph.CategoryData",
    "m_ObjectId": "12d5fe2614034f939e73fd822042a47f",
    "m_Name": "",
    "m_ChildObjectList": [
        {
            "m_Id": "3d8f56c18abc4aacaf8a7e8fe8296047"
        },
        {
            "m_Id": "abb02989851847be87c46ca93e247fba"
        },
        {
            "m_Id": "e28506b79d0a436ebe96c2e4ab775877"
        },
        {
            "m_Id": "188674ed5992404a8eef7a72b40a1abe"
        },
        {
            "m_Id": "970dcfdf074c43508e44713faac23e5e"
        },
        {
            "m_Id": "eed48c1eb8d149048f29a28e41bdc3b8"
        },
        {
            "m_Id": "8594ecdbe217424b907b5f878a4fbe54"
        },
        {
            "m_Id": "f977cb65dfe94f54b3f911574c139ff7"
        }
    ]
}

{
    "m_SGVersion": 0,
    "m_Type": "UnityEditor.ShaderGraph.TangentMaterialSlot",
    "m_ObjectId": "134626683183408e8b1ac6d8bbc54b57",
    "m_Id": 0,
    "m_DisplayName": "Tangent",
    "m_SlotType": 0,
    "m_Hidden": false,
    "m_ShaderOutputName": "Tangent",
    "m_StageCapability": 1,
    "m_Value": {
        "x": 0.0,
        "y": 0.0,
        "z": 0.0
    },
    "m_DefaultValue": {
        "x": 0.0,
        "y": 0.0,
        "z": 0.0
    },
    "m_Labels": [],
    "m_Space": 0
}

{
    "m_SGVersion": 1,
    "m_Type": "UnityEditor.ShaderGraph.Internal.Vector1ShaderProperty",
    "m_ObjectId": "188674ed5992404a8eef7a72b40a1abe",
    "m_Guid": {
        "m_GuidSerialized": "b970524e-569c-4a55-8893-9cafbae99c10"
    },
    "m_Name": "_Metallic",
    "m_DefaultRefNameVersion": 1,
    "m_RefNameGeneratedByDisplayName": "_Metallic",
    "m_DefaultReferenceName": "_Metallic",
    "m_OverrideReferenceName": "",
    "m_GeneratePropertyBlock": true,
    "m_UseCustomSlotLabel": false,
    "m_CustomSlotLabel": "",
    "m_Precision": 0,
    "overrideHLSLDeclaration": false,
    "hlslDeclarationOverride": 0,
    "m_Hidden": false,
    "m_Value": 0.10000000149011612,
    "m_FloatType": 0,
    "m_RangeValues": {
        "x": 0.0,
        "y": 1.0
    }
}

{
    "m_SGVersion": 0,
    "m_Type": "UnityEditor.Rendering.HighDefinition.ShaderGraph.SystemData",
    "m_ObjectId": "18bb6090afd84511a0bb58ca681602cb",
    "m_MaterialNeedsUpdateHash": 529,
    "m_SurfaceType": 0,
    "m_RenderingPass": 1,
    "m_BlendMode": 0,
    "m_ZTest": 4,
    "m_ZWrite": false,
    "m_TransparentCullMode": 2,
    "m_OpaqueCullMode": 2,
    "m_SortPriority": 0,
    "m_AlphaTest": false,
    "m_TransparentDepthPrepass": false,
    "m_TransparentDepthPostpass": false,
    "m_SupportLodCrossFade": false,
    "m_DoubleSidedMode": 0,
    "m_DOTSInstancing": false,
    "m_CustomVelocity": false,
    "m_Tessellation": false,
    "m_TessellationMode": 0,
    "m_TessellationFactorMinDistance": 20.0,
    "m_TessellationFactorMaxDistance": 50.0,
    "m_TessellationFactorTriangleSize": 100.0,
    "m_TessellationShapeFactor": 0.75,
    "m_TessellationBackFaceCullEpsilon": -0.25,
    "m_TessellationMaxDisplacement": 0.009999999776482582,
    "m_Version": 1,
    "inspectorFoldoutMask": 0
}

{
    "m_SGVersion": 0,
    "m_Type": "UnityEditor.ShaderGraph.PropertyNode",
    "m_ObjectId": "1d218ba56788464fac0cebe7ae112ad5",
    "m_Group": {
        "m_Id": ""
    },
    "m_Name": "Property",
    "m_DrawState": {
        "m_Expanded": true,
        "m_Position": {
            "serializedVersion": "2",
            "x": -211.00003051757813,
            "y": 362.0000305175781,
            "width": 121.0000228881836,
            "height": 33.999969482421878
        }
    },
    "m_Slots": [
        {
            "m_Id": "da881d18a2ef43feb078bb0ae596859a"
        }
    ],
    "synonyms": [],
    "m_Precision": 0,
    "m_PreviewExpanded": true,
    "m_PreviewMode": 0,
    "m_CustomColors": {
        "m_SerializableColors": []
    },
    "m_Property": {
        "m_Id": "188674ed5992404a8eef7a72b40a1abe"
    }
}

{
    "m_SGVersion": 0,
    "m_Type": "UnityEditor.ShaderGraph.DynamicVectorMaterialSlot",
    "m_ObjectId": "1e1b5343ffcb4274be7c29d88d2a1c39",
    "m_Id": 1,
    "m_DisplayName": "B",
    "m_SlotType": 0,
    "m_Hidden": false,
    "m_ShaderOutputName": "B",
    "m_StageCapability": 3,
    "m_Value": {
        "x": 0.0,
        "y": 0.0,
        "z": 0.0,
        "w": 0.0
    },
    "m_DefaultValue": {
        "x": 0.0,
        "y": 0.0,
        "z": 0.0,
        "w": 0.0
    }
}

{
    "m_SGVersion": 0,
    "m_Type": "UnityEditor.ShaderGraph.ColorRGBMaterialSlot",
    "m_ObjectId": "2d33affe807f408da12ac17892242728",
    "m_Id": 0,
    "m_DisplayName": "Emission",
    "m_SlotType": 0,
    "m_Hidden": false,
    "m_ShaderOutputName": "Emission",
    "m_StageCapability": 2,
    "m_Value": {
        "x": 0.0,
        "y": 0.0,
        "z": 0.0
    },
    "m_DefaultValue": {
        "x": 0.0,
        "y": 0.0,
        "z": 0.0
    },
    "m_Labels": [],
    "m_ColorMode": 1,
    "m_DefaultColor": {
        "r": 0.0,
        "g": 0.0,
        "b": 0.0,
        "a": 1.0
    }
}

{
    "m_SGVersion": 0,
    "m_Type": "UnityEditor.ShaderGraph.Vector1MaterialSlot",
    "m_ObjectId": "37ff0034bf04469a8f52abc9bfdd65f1",
    "m_Id": 0,
    "m_DisplayName": "Ambient Occlusion",
    "m_SlotType": 0,
    "m_Hidden": false,
    "m_ShaderOutputName": "Occlusion",
    "m_StageCapability": 2,
    "m_Value": 1.0,
    "m_DefaultValue": 1.0,
    "m_Labels": []
}

{
    "m_SGVersion": 0,
    "m_Type": "UnityEditor.ShaderGraph.NormalMaterialSlot",
    "m_ObjectId": "38629d39d37c4f48aca280cc4c489b85",
    "m_Id": 0,
    "m_DisplayName": "Normal",
    "m_SlotType": 0,
    "m_Hidden": false,
    "m_ShaderOutputName": "Normal",
    "m_StageCapability": 1,
    "m_Value": {
        "x": 0.0,
        "y": 0.0,
        "z": 0.0
    },
    "m_DefaultValue": {
        "x": 0.0,
        "y": 0.0,
        "z": 0.0
    },
    "m_Labels": [],
    "m_Space": 0
}

{
    "m_SGVersion": 3,
    "m_Type": "UnityEditor.ShaderGraph.Internal.ColorShaderProperty",
    "m_ObjectId": "3d8f56c18abc4aacaf8a7e8fe8296047",
    "m_Guid": {
        "m_GuidSerialized": "850706b8-84a5-4e8f-b386-0872908986fc"
    },
    "m_Name": "_BaseColor",
    "m_DefaultRefNameVersion": 1,
    "m_RefNameGeneratedByDisplayName": "_BaseColor",
    "m_DefaultReferenceName": "_BaseColor",
    "m_OverrideReferenceName": "",
    "m_GeneratePropertyBlock": true,
    "m_UseCustomSlotLabel": false,
    "m_CustomSlotLabel": "",
    "m_Precision": 0,
    "overrideHLSLDeclaration": false,
    "hlslDeclarationOverride": 0,
    "m_Hidden": false,
    "m_Value": {
        "r": 0.0,
        "g": 0.0,
        "b": 0.0,
        "a": 0.0
    },
    "isMainColor": false,
    "m_ColorMode": 0
}

{
    "m_SGVersion": 0,
    "m_Type": "UnityEditor.ShaderGraph.DynamicVectorMaterialSlot",
    "m_ObjectId": "3d9435c9d45740278c8c05fb81955428",
    "m_Id": 2,
    "m_DisplayName": "Out",
    "m_SlotType": 1,
    "m_Hidden": false,
    "m_ShaderOutputName": "Out",
    "m_StageCapability": 3,
    "m_Value": {
        "x": 0.0,
        "y": 0.0,
        "z": 0.0,
        "w": 0.0
    },
    "m_DefaultValue": {
        "x": 0.0,
        "y": 0.0,
        "z": 0.0,
        "w": 0.0
    }
}

{
    "m_SGVersion": 0,
    "m_Type": "UnityEditor.ShaderGraph.Vector1MaterialSlot",
    "m_ObjectId": "401e2825e3bf4201aed92272acf9dd9d",
    "m_Id": 3,
    "m_DisplayName": "A",
    "m_SlotType": 0,
    "m_Hidden": false,
    "m_ShaderOutputName": "A",
    "m_StageCapability": 3,
    "m_Value": 0.0,
    "m_DefaultValue": 0.0,
    "m_Labels": []
}

{
    "m_SGVersion": 0,
    "m_Type": "UnityEditor.ShaderGraph.ColorRGBMaterialSlot",
    "m_ObjectId": "4210d0534b1b4960b4e1f79d22b8ec4a",
    "m_Id": 0,
    "m_DisplayName": "Base Color",
    "m_SlotType": 0,
    "m_Hidden": false,
    "m_ShaderOutputName": "BaseColor",
    "m_StageCapability": 2,
    "m_Value": {
        "x": 0.5,
        "y": 0.5,
        "z": 0.5
    },
    "m_DefaultValue": {
        "x": 0.0,
        "y": 0.0,
        "z": 0.0
    },
    "m_Labels": [],
    "m_ColorMode": 0,
    "m_DefaultColor": {
        "r": 0.5,
        "g": 0.5,
        "b": 0.5,
        "a": 1.0
    }
}

{
    "m_SGVersion": 0,
    "m_Type": "UnityEditor.ShaderGraph.Vector1MaterialSlot",
    "m_ObjectId": "422de7000d2c4b9582642ade7c8ff527",
    "m_Id": 0,
    "m_DisplayName": "Alpha",
    "m_SlotType": 0,
    "m_Hidden": false,
    "m_ShaderOutputName": "Alpha",
    "m_StageCapability": 2,
    "m_Value": 1.0,
    "m_DefaultValue": 1.0,
    "m_Labels": []
}

{
    "m_SGVersion": 0,
    "m_Type": "UnityEditor.Rendering.HighDefinition.ShaderGraph.HDLitSubTarget",
    "m_ObjectId": "498467f0cf984280971d5f55781995f0"
}

{
    "m_SGVersion": 0,
    "m_Type": "UnityEditor.ShaderGraph.BlockNode",
    "m_ObjectId": "4d9cc88193df4afa9d9c615d767a5de7",
    "m_Group": {
        "m_Id": ""
    },
    "m_Name": "VertexDescription.Tangent",
    "m_DrawState": {
        "m_Expanded": true,
        "m_Position": {
            "serializedVersion": "2",
            "x": 0.0,
            "y": 0.0,
            "width": 0.0,
            "height": 0.0
        }
    },
    "m_Slots": [
        {
            "m_Id": "134626683183408e8b1ac6d8bbc54b57"
        }
    ],
    "synonyms": [],
    "m_Precision": 0,
    "m_PreviewExpanded": true,
    "m_PreviewMode": 0,
    "m_CustomColors": {
        "m_SerializableColors": []
    },
    "m_SerializedDescriptor": "VertexDescription.Tangent"
}

{
    "m_SGVersion": 0,
    "m_Type": "UnityEditor.ShaderGraph.PropertyNode",
    "m_ObjectId": "597868c1d2fa4480987ce4529a730eff",
    "m_Group": {
        "m_Id": ""
    },
    "m_Name": "Property",
    "m_DrawState": {
        "m_Expanded": true,
        "m_Position": {
            "serializedVersion": "2",
            "x": -210.99990844726563,
            "y": 414.9999694824219,
            "width": 144.99998474121095,
            "height": 34.000030517578128
        }
    },
    "m_Slots": [
        {
            "m_Id": "787aea9c786e44f1b5d8fdce3d51cfff"
        }
    ],
    "synonyms": [],
    "m_Precision": 0,
    "m_PreviewExpanded": true,
    "m_PreviewMode": 0,
    "m_CustomColors": {
        "m_SerializableColors": []
    },
    "m_Property": {
        "m_Id": "e28506b79d0a436ebe96c2e4ab775877"
    }
}

{
    "m_SGVersion": 0,
    "m_Type": "UnityEditor.ShaderGraph.BlockNode",
    "m_ObjectId": "63b5209ccc3041118e0d3d65d7e76c13",
    "m_Group": {
        "m_Id": ""
    },
    "m_Name": "SurfaceDescription.NormalTS",
    "m_DrawState": {
        "m_Expanded": true,
        "m_Position": {
            "serializedVersion": "2",
            "x": 0.0,
            "y": 0.0,
            "width": 0.0,
            "height": 0.0
        }
    },
    "m_Slots": [
        {
            "m_Id": "650651c265294912a553361ee8c6596b"
        }
    ],
    "synonyms": [],
    "m_Precision": 0,
    "m_PreviewExpanded": true,
    "m_PreviewMode": 0,
    "m_CustomColors": {
        "m_SerializableColors": []
    },
    "m_SerializedDescriptor": "SurfaceDescription.NormalTS"
}

{
    "m_SGVersion": 0,
    "m_Type": "UnityEditor.ShaderGraph.NormalMaterialSlot",
    "m_ObjectId": "650651c265294912a553361ee8c6596b",
    "m_Id": 0,
    "m_DisplayName": "Normal (Tangent Space)",
    "m_SlotType": 0,
    "m_Hidden": false,
    "m_ShaderOutputName": "NormalTS",
    "m_StageCapability": 2,
    "m_Value": {
        "x": 0.0,
        "y": 0.0,
        "z": 0.0
    },
    "m_DefaultValue": {
        "x": 0.0,
        "y": 0.0,
        "z": 0.0
    },
    "m_Labels": [],
    "m_Space": 3
}

{
    "m_SGVersion": 0,
    "m_Type": "UnityEditor.ShaderGraph.BlockNode",
    "m_ObjectId": "66c98877ff43449c868264e99b1e66dc",
    "m_Group": {
        "m_Id": ""
    },
    "m_Name": "SurfaceDescription.BaseColor",
    "m_DrawState": {
        "m_Expanded": true,
        "m_Position": {
            "serializedVersion": "2",
            "x": 0.0,
            "y": 0.0,
            "width": 0.0,
            "height": 0.0
        }
    },
    "m_Slots": [
        {
            "m_Id": "4210d0534b1b4960b4e1f79d22b8ec4a"
        }
    ],
    "synonyms": [],
    "m_Precision": 0,
    "m_PreviewExpanded": true,
    "m_PreviewMode": 0,
    "m_CustomColors": {
        "m_SerializableColors": []
    },
    "m_SerializedDescriptor": "SurfaceDescription.BaseColor"
}

{
    "m_SGVersion": 0,
    "m_Type": "UnityEditor.ShaderGraph.Vector3MaterialSlot",
    "m_ObjectId": "6b5df79ef2334e38890f513e8fdc09a2",
    "m_Id": 5,
    "m_DisplayName": "RGB",
    "m_SlotType": 1,
    "m_Hidden": false,
    "m_ShaderOutputName": "RGB",
    "m_StageCapability": 3,
    "m_Value": {
        "x": 0.0,
        "y": 0.0,
        "z": 0.0
    },
    "m_DefaultValue": {
        "x": 0.0,
        "y": 0.0,
        "z": 0.0
    },
    "m_Labels": []
}

{
    "m_SGVersion": 0,
    "m_Type": "UnityEditor.ShaderGraph.Vector4MaterialSlot",
    "m_ObjectId": "7067da74b28043c8a130950ac1e5ea86",
    "m_Id": 0,
    "m_DisplayName": "Color",
    "m_SlotType": 1,
    "m_Hidden": false,
    "m_ShaderOutputName": "Out",
    "m_StageCapability": 3,
    "m_Value": {
        "x": 0.0,
        "y": 0.0,
        "z": 0.0,
        "w": 0.0
    },
    "m_DefaultValue": {
        "x": 0.0,
        "y": 0.0,
        "z": 0.0,
        "w": 0.0
    },
    "m_Labels": []
}

{
    "m_SGVersion": 0,
    "m_Type": "UnityEditor.ShaderGraph.BlockNode",
    "m_ObjectId": "7118bbbe118e43c082803804ac99cb13",
    "m_Group": {
        "m_Id": ""
    },
    "m_Name": "SurfaceDescription.Alpha",
    "m_DrawState": {
        "m_Expanded": true,
        "m_Position": {
            "serializedVersion": "2",
            "x": 0.0,
            "y": 0.0,
            "width": 0.0,
            "height": 0.0
        }
    },
    "m_Slots": [
        {
            "m_Id": "422de7000d2c4b9582642ade7c8ff527"
        }
    ],
    "synonyms": [],
    "m_Precision": 0,
    "m_PreviewExpanded": true,
    "m_PreviewMode": 0,
    "m_CustomColors": {
        "m_SerializableColors": []
    },
    "m_SerializedDescriptor": "SurfaceDescription.Alpha"
}

{
    "m_SGVersion": 0,
    "m_Type": "UnityEditor.ShaderGraph.AddNode",
    "m_ObjectId": "7787e1ee7b564c74a605beef6ec33807",
    "m_Group": {
        "m_Id": ""
    },
    "m_Name": "Add",
    "m_DrawState": {
        "m_Expanded": true,
        "m_Position": {
            "serializedVersion": "2",
            "x": -479.3332824707031,
            "y": 174.6667022705078,
            "width": 209.33331298828126,
            "height": 304.0
        }
    },
    "m_Slots": [
        {
            "m_Id": "e31513688acb42daadf7f3d18b144619"
        },
        {
            "m_Id": "1e1b5343ffcb4274be7c29d88d2a1c39"
        },
        {
            "m_Id": "3d9435c9d45740278c8c05fb81955428"
        }
    ],
    "synonyms": [
        "addition",
        "sum",
        "plus"
    ],
    "m_Precision": 0,
    "m_PreviewExpanded": true,
    "m_PreviewMode": 0,
    "m_CustomColors": {
        "m_SerializableColors": []
    }
}

{
    "m_SGVersion": 0,
    "m_Type": "UnityEditor.ShaderGraph.Vector1MaterialSlot",
    "m_ObjectId": "787aea9c786e44f1b5d8fdce3d51cfff",
    "m_Id": 0,
    "m_DisplayName": "_Smoothness",
    "m_SlotType": 1,
    "m_Hidden": false,
    "m_ShaderOutputName": "Out",
    "m_StageCapability": 3,
    "m_Value": 0.0,
    "m_DefaultValue": 0.0,
    "m_Labels": []
}

{
    "m_SGVersion": 0,
    "m_Type": "UnityEditor.ShaderGraph.NormalMaterialSlot",
    "m_ObjectId": "7b238384d767449a82cbe254e8e4e740",
    "m_Id": 0,
    "m_DisplayName": "Bent Normal",
    "m_SlotType": 0,
    "m_Hidden": false,
    "m_ShaderOutputName": "BentNormal",
    "m_StageCapability": 2,
    "m_Value": {
        "x": 0.0,
        "y": 0.0,
        "z": 0.0
    },
    "m_DefaultValue": {
        "x": 0.0,
        "y": 0.0,
        "z": 0.0
    },
    "m_Labels": [],
    "m_Space": 3
}

{
    "m_SGVersion": 0,
    "m_Type": "UnityEditor.ShaderGraph.Vector2MaterialSlot",
    "m_ObjectId": "7b8f1654e33348d8ab9eb50d92d74589",
    "m_Id": 6,
    "m_DisplayName": "RG",
    "m_SlotType": 1,
    "m_Hidden": false,
    "m_ShaderOutputName": "RG",
    "m_StageCapability": 3,
    "m_Value": {
        "x": 0.0,
        "y": 0.0
    },
    "m_DefaultValue": {
        "x": 0.0,
        "y": 0.0
    },
    "m_Labels": []
}

{
    "m_SGVersion": 1,
    "m_Type": "UnityEditor.ShaderGraph.Internal.Vector1ShaderProperty",
    "m_ObjectId": "8594ecdbe217424b907b5f878a4fbe54",
    "m_Guid": {
        "m_GuidSerialized": "01389007-a2d0-42a4-be2b-caf5c31f5405"
    },
    "m_Name": "ColorR",
    "m_DefaultRefNameVersion": 1,
    "m_RefNameGeneratedByDisplayName": "ColorR",
    "m_DefaultReferenceName": "_ColorR",
    "m_OverrideReferenceName": "",
    "m_GeneratePropertyBlock": true,
    "m_UseCustomSlotLabel": false,
    "m_CustomSlotLabel": "",
    "m_Precision": 0,
    "overrideHLSLDeclaration": false,
    "hlslDeclarationOverride": 0,
    "m_Hidden": false,
    "m_Value": 0.0,
    "m_FloatType": 0,
    "m_RangeValues": {
        "x": 0.0,
        "y": 1.0
    }
}

{
    "m_SGVersion": 0,
    "m_Type": "UnityEditor.ShaderGraph.Vector1MaterialSlot",
    "m_ObjectId": "8c7348b44b724b7aab49a49f1265cc40",
    "m_Id": 0,
    "m_DisplayName": "Smoothness",
    "m_SlotType": 0,
    "m_Hidden": false,
    "m_ShaderOutputName": "Smoothness",
    "m_StageCapability": 2,
    "m_Value": 0.5,
    "m_DefaultValue": 0.5,
    "m_Labels": []
}

{
    "m_SGVersion": 0,
    "m_Type": "UnityEditor.ShaderGraph.Vector1MaterialSlot",
    "m_ObjectId": "8db4b43adfe7426195f36ff9c2aeea44",
    "m_Id": 0,
    "m_DisplayName": "ColorR",
    "m_SlotType": 1,
    "m_Hidden": false,
    "m_ShaderOutputName": "Out",
    "m_StageCapability": 3,
    "m_Value": 0.0,
    "m_DefaultValue": 0.0,
    "m_Labels": []
}

{
    "m_SGVersion": 0,
    "m_Type": "UnityEditor.ShaderGraph.BlockNode",
    "m_ObjectId": "92aaf5e022d44400bdad02568bf157c4",
    "m_Group": {
        "m_Id": ""
    },
    "m_Name": "SurfaceDescription.Metallic",
    "m_DrawState": {
        "m_Expanded": true,
        "m_Position": {
            "serializedVersion": "2",
            "x": 0.0,
            "y": 0.0,
            "width": 0.0,
            "height": 0.0
        }
    },
    "m_Slots": [
        {
            "m_Id": "d17b8e41a5854fa89df84c554b9bed83"
        }
    ],
    "synonyms": [],
    "m_Precision": 0,
    "m_PreviewExpanded": true,
    "m_PreviewMode": 0,
    "m_CustomColors": {
        "m_SerializableColors": []
    },
    "m_SerializedDescriptor": "SurfaceDescription.Metallic"
}

{
    "m_SGVersion": 0,
    "m_Type": "UnityEditor.ShaderGraph.BlockNode",
    "m_ObjectId": "95b2802079414ed59f5e03bbad9c88a4",
    "m_Group": {
        "m_Id": ""
    },
    "m_Name": "SurfaceDescription.BentNormal",
    "m_DrawState": {
        "m_Expanded": true,
        "m_Position": {
            "serializedVersion": "2",
            "x": 0.0,
            "y": 0.0,
            "width": 0.0,
            "height": 0.0
        }
    },
    "m_Slots": [
        {
            "m_Id": "7b238384d767449a82cbe254e8e4e740"
        }
    ],
    "synonyms": [],
    "m_Precision": 0,
    "m_PreviewExpanded": true,
    "m_PreviewMode": 0,
    "m_CustomColors": {
        "m_SerializableColors": []
    },
    "m_SerializedDescriptor": "SurfaceDescription.BentNormal"
}

{
    "m_SGVersion": 1,
    "m_Type": "UnityEditor.ShaderGraph.Internal.Vector1ShaderProperty",
    "m_ObjectId": "970dcfdf074c43508e44713faac23e5e",
    "m_Guid": {
        "m_GuidSerialized": "6303d971-1942-4f6f-9c68-2437c5bb2e7e"
    },
    "m_Name": "_EmissionIntensity",
    "m_DefaultRefNameVersion": 1,
    "m_RefNameGeneratedByDisplayName": "_EmissionIntensity",
    "m_DefaultReferenceName": "_EmissionIntensity",
    "m_OverrideReferenceName": "",
    "m_GeneratePropertyBlock": true,
    "m_UseCustomSlotLabel": false,
    "m_CustomSlotLabel": "",
    "m_Precision": 0,
    "overrideHLSLDeclaration": false,
    "hlslDeclarationOverride": 0,
    "m_Hidden": false,
    "m_Value": 1.0,
    "m_FloatType": 0,
    "m_RangeValues": {
        "x": 0.0,
        "y": 1.0
    }
}

{
    "m_SGVersion": 0,
    "m_Type": "UnityEditor.Rendering.HighDefinition.ShaderGraph.LightingData",
    "m_ObjectId": "992572a7cf084b43a55c16c3254d25cf",
    "m_NormalDropOffSpace": 0,
    "m_BlendPreserveSpecular": true,
    "m_ReceiveDecals": true,
    "m_ReceiveSSR": true,
    "m_ReceiveSSRTransparent": false,
    "m_SpecularAA": false,
    "m_SpecularOcclusionMode": 1,
    "m_OverrideBakedGI": false
}

{
    "m_SGVersion": 0,
    "m_Type": "UnityEditor.ShaderGraph.PropertyNode",
    "m_ObjectId": "9b41430420da4da0877a6e57a16255c9",
    "m_Group": {
        "m_Id": ""
    },
    "m_Name": "Property",
    "m_DrawState": {
        "m_Expanded": true,
        "m_Position": {
            "serializedVersion": "2",
            "x": -1170.6666259765625,
            "y": 174.6666717529297,
            "width": 111.3333740234375,
            "height": 36.00001525878906
        }
    },
    "m_Slots": [
        {
            "m_Id": "8db4b43adfe7426195f36ff9c2aeea44"
        }
    ],
    "synonyms": [],
    "m_Precision": 0,
    "m_PreviewExpanded": true,
    "m_PreviewMode": 0,
    "m_CustomColors": {
        "m_SerializableColors": []
    },
    "m_Property": {
        "m_Id": "8594ecdbe217424b907b5f878a4fbe54"
    }
}

{
    "m_SGVersion": 0,
    "m_Type": "UnityEditor.ShaderGraph.BlockNode",
    "m_ObjectId": "a1e962d7d6894fbb96251409c2359274",
    "m_Group": {
        "m_Id": ""
    },
    "m_Name": "SurfaceDescription.Emission",
    "m_DrawState": {
        "m_Expanded": true,
        "m_Position": {
            "serializedVersion": "2",
            "x": 0.0,
            "y": 0.0,
            "width": 0.0,
            "height": 0.0
        }
    },
    "m_Slots": [
        {
            "m_Id": "2d33affe807f408da12ac17892242728"
        }
    ],
    "synonyms": [],
    "m_Precision": 0,
    "m_PreviewExpanded": true,
    "m_PreviewMode": 0,
    "m_CustomColors": {
        "m_SerializableColors": []
    },
    "m_SerializedDescriptor": "SurfaceDescription.Emission"
}

{
    "m_SGVersion": 0,
    "m_Type": "UnityEditor.ShaderGraph.Internal.Texture2DShaderProperty",
    "m_ObjectId": "abb02989851847be87c46ca93e247fba",
    "m_Guid": {
        "m_GuidSerialized": "dba68268-28e3-4e10-bd29-25599b4d807c"
    },
    "m_Name": "_MainTexture",
    "m_DefaultRefNameVersion": 1,
    "m_RefNameGeneratedByDisplayName": "_MainTexture",
    "m_DefaultReferenceName": "_MainTexture",
    "m_OverrideReferenceName": "",
    "m_GeneratePropertyBlock": true,
    "m_UseCustomSlotLabel": false,
    "m_CustomSlotLabel": "",
    "m_Precision": 0,
    "overrideHLSLDeclaration": false,
    "hlslDeclarationOverride": 0,
    "m_Hidden": false,
    "m_Value": {
        "m_SerializedTexture": "{\"texture\":{\"instanceID\":0}}",
        "m_Guid": ""
    },
    "isMainTexture": false,
    "useTilingAndOffset": false,
    "m_Modifiable": true,
    "m_DefaultType": 0
}

{
    "m_SGVersion": 0,
    "m_Type": "UnityEditor.ShaderGraph.Vector4MaterialSlot",
    "m_ObjectId": "ac0d6f416f7148168e3a801d3bae98ea",
    "m_Id": 4,
    "m_DisplayName": "RGBA",
    "m_SlotType": 1,
    "m_Hidden": false,
    "m_ShaderOutputName": "RGBA",
    "m_StageCapability": 3,
    "m_Value": {
        "x": 0.0,
        "y": 0.0,
        "z": 0.0,
        "w": 0.0
    },
    "m_DefaultValue": {
        "x": 0.0,
        "y": 0.0,
        "z": 0.0,
        "w": 0.0
    },
    "m_Labels": []
}

{
    "m_SGVersion": 0,
    "m_Type": "UnityEditor.ShaderGraph.PropertyNode",
    "m_ObjectId": "ba795df1b6bd43a39790092ee4c2c948",
    "m_Group": {
        "m_Id": ""
    },
    "m_Name": "Property",
    "m_DrawState": {
        "m_Expanded": true,
        "m_Position": {
            "serializedVersion": "2",
            "x": -751.3333129882813,
            "y": 33.33339309692383,
            "width": 106.666748046875,
            "height": 35.99990463256836
        }
    },
    "m_Slots": [
        {
            "m_Id": "7067da74b28043c8a130950ac1e5ea86"
        }
    ],
    "synonyms": [],
    "m_Precision": 0,
    "m_PreviewExpanded": true,
    "m_PreviewMode": 0,
    "m_CustomColors": {
        "m_SerializableColors": []
    },
    "m_Property": {
        "m_Id": "f977cb65dfe94f54b3f911574c139ff7"
    }
}

{
    "m_SGVersion": 0,
    "m_Type": "UnityEditor.ShaderGraph.CombineNode",
    "m_ObjectId": "babd9f206dff43128765c8f8a74cd8b1",
    "m_Group": {
        "m_Id": ""
    },
    "m_Name": "Combine",
    "m_DrawState": {
        "m_Expanded": true,
        "m_Position": {
            "serializedVersion": "2",
            "x": -854.0,
            "y": 174.66664123535157,
            "width": 209.33343505859376,
            "height": 352.0001220703125
        }
    },
    "m_Slots": [
        {
            "m_Id": "cacba603e91443c48fd7f40a4d80aa00"
        },
        {
            "m_Id": "c1e4cec23d0f4e32b85c6606f270d038"
        },
        {
            "m_Id": "ff892998615d4e5ab2c7de39d38e3a9c"
        },
        {
            "m_Id": "401e2825e3bf4201aed92272acf9dd9d"
        },
        {
            "m_Id": "ac0d6f416f7148168e3a801d3bae98ea"
        },
        {
            "m_Id": "6b5df79ef2334e38890f513e8fdc09a2"
        },
        {
            "m_Id": "7b8f1654e33348d8ab9eb50d92d74589"
        }
    ],
    "synonyms": [
        "append"
    ],
    "m_Precision": 0,
    "m_PreviewExpanded": true,
    "m_PreviewMode": 0,
    "m_CustomColors": {
        "m_SerializableColors": []
    }
}

{
    "m_SGVersion": 0,
    "m_Type": "UnityEditor.ShaderGraph.BlockNode",
    "m_ObjectId": "bc62407dd032488cbc9e1d8aa90cae8b",
    "m_Group": {
        "m_Id": ""
    },
    "m_Name": "VertexDescription.Normal",
    "m_DrawState": {
        "m_Expanded": true,
        "m_Position": {
            "serializedVersion": "2",
            "x": 0.0,
            "y": 0.0,
            "width": 0.0,
            "height": 0.0
        }
    },
    "m_Slots": [
        {
            "m_Id": "38629d39d37c4f48aca280cc4c489b85"
        }
    ],
    "synonyms": [],
    "m_Precision": 0,
    "m_PreviewExpanded": true,
    "m_PreviewMode": 0,
    "m_CustomColors": {
        "m_SerializableColors": []
    },
    "m_SerializedDescriptor": "VertexDescription.Normal"
}

{
    "m_SGVersion": 0,
    "m_Type": "UnityEditor.ShaderGraph.BlockNode",
    "m_ObjectId": "be0bd3d633734f78995d9695f7c57b3c",
    "m_Group": {
        "m_Id": ""
    },
    "m_Name": "SurfaceDescription.Smoothness",
    "m_DrawState": {
        "m_Expanded": true,
        "m_Position": {
            "serializedVersion": "2",
            "x": 0.0,
            "y": 0.0,
            "width": 0.0,
            "height": 0.0
        }
    },
    "m_Slots": [
        {
            "m_Id": "8c7348b44b724b7aab49a49f1265cc40"
        }
    ],
    "synonyms": [],
    "m_Precision": 0,
    "m_PreviewExpanded": true,
    "m_PreviewMode": 0,
    "m_CustomColors": {
        "m_SerializableColors": []
    },
    "m_SerializedDescriptor": "SurfaceDescription.Smoothness"
}

{
    "m_SGVersion": 0,
    "m_Type": "UnityEditor.ShaderGraph.Vector1MaterialSlot",
    "m_ObjectId": "c1e4cec23d0f4e32b85c6606f270d038",
    "m_Id": 1,
    "m_DisplayName": "G",
    "m_SlotType": 0,
    "m_Hidden": false,
    "m_ShaderOutputName": "G",
    "m_StageCapability": 3,
    "m_Value": 0.0,
    "m_DefaultValue": 0.0,
    "m_Labels": []
}

{
    "m_SGVersion": 0,
    "m_Type": "UnityEditor.ShaderGraph.BlockNode",
    "m_ObjectId": "c2f092b89feb4f41b914c9575d26c2c4",
    "m_Group": {
        "m_Id": ""
    },
    "m_Name": "VertexDescription.Position",
    "m_DrawState": {
        "m_Expanded": true,
        "m_Position": {
            "serializedVersion": "2",
            "x": 0.0,
            "y": 0.0,
            "width": 0.0,
            "height": 0.0
        }
    },
    "m_Slots": [
        {
            "m_Id": "e1e137b89d294656894b375b58c21ac4"
        }
    ],
    "synonyms": [],
    "m_Precision": 0,
    "m_PreviewExpanded": true,
    "m_PreviewMode": 0,
    "m_CustomColors": {
        "m_SerializableColors": []
    },
    "m_SerializedDescriptor": "VertexDescription.Position"
}

{
    "m_SGVersion": 0,
    "m_Type": "UnityEditor.ShaderGraph.Vector1MaterialSlot",
    "m_ObjectId": "cacba603e91443c48fd7f40a4d80aa00",
    "m_Id": 0,
    "m_DisplayName": "R",
    "m_SlotType": 0,
    "m_Hidden": false,
    "m_ShaderOutputName": "R",
    "m_StageCapability": 3,
    "m_Value": 0.0,
    "m_DefaultValue": 0.0,
    "m_Labels": []
}

{
    "m_SGVersion": 0,
    "m_Type": "UnityEditor.ShaderGraph.Vector1MaterialSlot",
    "m_ObjectId": "d17b8e41a5854fa89df84c554b9bed83",
    "m_Id": 0,
    "m_DisplayName": "Metallic",
    "m_SlotType": 0,
    "m_Hidden": false,
    "m_ShaderOutputName": "Metallic",
    "m_StageCapability": 2,
    "m_Value": 0.0,
    "m_DefaultValue": 0.0,
    "m_Labels": []
}

{
    "m_SGVersion": 0,
    "m_Type": "UnityEditor.Rendering.HighDefinition.ShaderGraph.HDLitData",
    "m_ObjectId": "d940da43298a4ef1be91cce9213c3b86",
    "m_RayTracing": false,
    "m_MaterialType": 0,
    "m_RefractionModel": 0,
    "m_SSSTransmission": true,
    "m_EnergyConservingSpecular": true,
    "m_ClearCoat": false
}

{
    "m_SGVersion": 0,
    "m_Type": "UnityEditor.Rendering.HighDefinition.ShaderGraph.HDTarget",
    "m_ObjectId": "da7e36a414554f31a318c193fea3c57d",
    "m_ActiveSubTarget": {
        "m_Id": "498467f0cf984280971d5f55781995f0"
    },
    "m_Datas": [
        {
            "m_Id": "d940da43298a4ef1be91cce9213c3b86"
        },
        {
            "m_Id": "eaca4e8f2d3d4729a4aa3a15c9d9a2f3"
        },
        {
            "m_Id": "992572a7cf084b43a55c16c3254d25cf"
        },
        {
            "m_Id": "18bb6090afd84511a0bb58ca681602cb"
        }
    ],
    "m_CustomEditorGUI": "",
    "m_SupportVFX": false
}

{
    "m_SGVersion": 0,
    "m_Type": "UnityEditor.ShaderGraph.Vector1MaterialSlot",
    "m_ObjectId": "da881d18a2ef43feb078bb0ae596859a",
    "m_Id": 0,
    "m_DisplayName": "_Metallic",
    "m_SlotType": 1,
    "m_Hidden": false,
    "m_ShaderOutputName": "Out",
    "m_StageCapability": 3,
    "m_Value": 0.0,
    "m_DefaultValue": 0.0,
    "m_Labels": []
}

{
    "m_SGVersion": 0,
    "m_Type": "UnityEditor.ShaderGraph.PositionMaterialSlot",
    "m_ObjectId": "e1e137b89d294656894b375b58c21ac4",
    "m_Id": 0,
    "m_DisplayName": "Position",
    "m_SlotType": 0,
    "m_Hidden": false,
    "m_ShaderOutputName": "Position",
    "m_StageCapability": 1,
    "m_Value": {
        "x": 0.0,
        "y": 0.0,
        "z": 0.0
    },
    "m_DefaultValue": {
        "x": 0.0,
        "y": 0.0,
        "z": 0.0
    },
    "m_Labels": [],
    "m_Space": 0
}

{
    "m_SGVersion": 1,
    "m_Type": "UnityEditor.ShaderGraph.Internal.Vector1ShaderProperty",
    "m_ObjectId": "e28506b79d0a436ebe96c2e4ab775877",
    "m_Guid": {
        "m_GuidSerialized": "b7136233-1682-48fd-9bb2-bb4225f1791f"
    },
    "m_Name": "_Smoothness",
    "m_DefaultRefNameVersion": 1,
    "m_RefNameGeneratedByDisplayName": "_Smoothness",
    "m_DefaultReferenceName": "_Smoothness",
    "m_OverrideReferenceName": "",
    "m_GeneratePropertyBlock": true,
    "m_UseCustomSlotLabel": false,
    "m_CustomSlotLabel": "",
    "m_Precision": 0,
    "overrideHLSLDeclaration": false,
    "hlslDeclarationOverride": 0,
    "m_Hidden": false,
    "m_Value": 0.20000000298023225,
    "m_FloatType": 0,
    "m_RangeValues": {
        "x": 0.0,
        "y": 1.0
    }
}

{
    "m_SGVersion": 0,
    "m_Type": "UnityEditor.ShaderGraph.DynamicVectorMaterialSlot",
    "m_ObjectId": "e31513688acb42daadf7f3d18b144619",
    "m_Id": 0,
    "m_DisplayName": "A",
    "m_SlotType": 0,
    "m_Hidden": false,
    "m_ShaderOutputName": "A",
    "m_StageCapability": 3,
    "m_Value": {
        "x": 0.0,
        "y": 0.0,
        "z": 0.0,
        "w": 0.0
    },
    "m_DefaultValue": {
        "x": 0.0,
        "y": 0.0,
        "z": 0.0,
        "w": 0.0
    }
}

{
    "m_SGVersion": 0,
    "m_Type": "UnityEditor.Rendering.HighDefinition.ShaderGraph.BuiltinData",
    "m_ObjectId": "eaca4e8f2d3d4729a4aa3a15c9d9a2f3",
    "m_Distortion": false,
    "m_DistortionMode": 0,
    "m_DistortionDepthTest": true,
    "m_AddPrecomputedVelocity": false,
    "m_TransparentWritesMotionVec": false,
    "m_AlphaToMask": false,
    "m_DepthOffset": false,
    "m_ConservativeDepthOffset": false,
    "m_TransparencyFog": true,
    "m_AlphaTestShadow": false,
    "m_BackThenFrontRendering": false,
    "m_TransparentDepthPrepass": false,
    "m_TransparentDepthPostpass": false,
    "m_SupportLodCrossFade": false
}

{
    "m_SGVersion": 1,
    "m_Type": "UnityEditor.ShaderGraph.Internal.Vector3ShaderProperty",
    "m_ObjectId": "eed48c1eb8d149048f29a28e41bdc3b8",
    "m_Guid": {
        "m_GuidSerialized": "36eaad89-f8b4-43f4-b431-7960dea35a4a"
    },
    "m_Name": "VectorColor",
    "m_DefaultRefNameVersion": 1,
    "m_RefNameGeneratedByDisplayName": "VectorColor",
    "m_DefaultReferenceName": "_VectorColor",
    "m_OverrideReferenceName": "_VectorColor",
    "m_GeneratePropertyBlock": true,
    "m_UseCustomSlotLabel": false,
    "m_CustomSlotLabel": "",
    "m_Precision": 0,
    "overrideHLSLDeclaration": false,
    "hlslDeclarationOverride": 0,
    "m_Hidden": false,
    "m_Value": {
        "x": 0.0,
        "y": 0.0,
        "z": 0.0,
        "w": 0.0
    }
}

{
    "m_SGVersion": 0,
    "m_Type": "UnityEditor.ShaderGraph.BlockNode",
    "m_ObjectId": "f674a5aacc524e02b15484a9a4ba2b18",
    "m_Group": {
        "m_Id": ""
    },
    "m_Name": "SurfaceDescription.Occlusion",
    "m_DrawState": {
        "m_Expanded": true,
        "m_Position": {
            "serializedVersion": "2",
            "x": 0.0,
            "y": 0.0,
            "width": 0.0,
            "height": 0.0
        }
    },
    "m_Slots": [
        {
            "m_Id": "37ff0034bf04469a8f52abc9bfdd65f1"
        }
    ],
    "synonyms": [],
    "m_Precision": 0,
    "m_PreviewExpanded": true,
    "m_PreviewMode": 0,
    "m_CustomColors": {
        "m_SerializableColors": []
    },
    "m_SerializedDescriptor": "SurfaceDescription.Occlusion"
}

{
    "m_SGVersion": 3,
    "m_Type": "UnityEditor.ShaderGraph.Internal.ColorShaderProperty",
    "m_ObjectId": "f977cb65dfe94f54b3f911574c139ff7",
    "m_Guid": {
        "m_GuidSerialized": "6b2fdb4a-a388-4a46-b81e-36c193452b26"
    },
    "m_Name": "Color",
    "m_DefaultRefNameVersion": 1,
    "m_RefNameGeneratedByDisplayName": "Color",
    "m_DefaultReferenceName": "_Color",
    "m_OverrideReferenceName": "",
    "m_GeneratePropertyBlock": true,
    "m_UseCustomSlotLabel": false,
    "m_CustomSlotLabel": "",
    "m_Precision": 0,
    "overrideHLSLDeclaration": false,
    "hlslDeclarationOverride": 0,
    "m_Hidden": false,
    "m_Value": {
        "r": 0.0,
        "g": 0.0,
        "b": 0.0,
        "a": 0.0
    },
    "isMainColor": false,
    "m_ColorMode": 0
}

{
    "m_SGVersion": 0,
    "m_Type": "UnityEditor.ShaderGraph.Vector1MaterialSlot",
    "m_ObjectId": "ff892998615d4e5ab2c7de39d38e3a9c",
    "m_Id": 2,
    "m_DisplayName": "B",
    "m_SlotType": 0,
    "m_Hidden": false,
    "m_ShaderOutputName": "B",
    "m_StageCapability": 3,
    "m_Value": 0.0,
    "m_DefaultValue": 0.0,
    "m_Labels": []
}

